Lab 3/VDHL/simulation/qsim/nsubburaj_lab3_VHDL.msim.vcd
$comment
	File created using the following command:
		vcd file nsubburaj_lab3_VHDL.msim.vcd -direction
$end
$date
	Wed Sep 29 17:33:56 2021
$end
$version
	ModelSim Version 2020.1
$end
$timescale
	1ps
$end

$scope module nsubburaj_lab3_vhdl_vhd_vec_tst $end
$var wire 1 ! LEDG $end
$var wire 1 " LEDR $end
$var wire 1 # level1 $end
$var wire 1 $ level2 $end
$var wire 1 % level3 $end
$var wire 1 & level4 $end
$var wire 1 ' level5 $end
$var wire 1 ( level6 $end
$var wire 1 ) level7 $end

$scope module i1 $end
$var wire 1 * gnd $end
$var wire 1 + vcc $end
$var wire 1 , unknown $end
$var wire 1 - devoe $end
$var wire 1 . devclrn $end
$var wire 1 / devpor $end
$var wire 1 0 ww_devoe $end
$var wire 1 1 ww_devclrn $end
$var wire 1 2 ww_devpor $end
$var wire 1 3 ww_level1 $end
$var wire 1 4 ww_level2 $end
$var wire 1 5 ww_level3 $end
$var wire 1 6 ww_level4 $end
$var wire 1 7 ww_level5 $end
$var wire 1 8 ww_level6 $end
$var wire 1 9 ww_level7 $end
$var wire 1 : ww_LEDR $end
$var wire 1 ; ww_LEDG $end
$var wire 1 < \~QUARTUS_CREATED_GND~I_combout\ $end
$var wire 1 = \level7~input_o\ $end
$var wire 1 > \level3~input_o\ $end
$var wire 1 ? \level2~input_o\ $end
$var wire 1 @ \level1~input_o\ $end
$var wire 1 A \level4~input_o\ $end
$var wire 1 B \LEDR~0_combout\ $end
$var wire 1 C \level5~input_o\ $end
$var wire 1 D \level6~input_o\ $end
$var wire 1 E \LEDR~1_combout\ $end
$var wire 1 F \ALT_INV_level1~input_o\ $end
$var wire 1 G \ALT_INV_level2~input_o\ $end
$var wire 1 H \ALT_INV_level3~input_o\ $end
$var wire 1 I \ALT_INV_level4~input_o\ $end
$var wire 1 J \ALT_INV_LEDR~0_combout\ $end
$var wire 1 K \ALT_INV_LEDR~1_combout\ $end
$var wire 1 L \ALT_INV_level5~input_o\ $end
$var wire 1 M \ALT_INV_level6~input_o\ $end
$var wire 1 N \ALT_INV_level7~input_o\ $end
$upscope $end
$upscope $end
$enddefinitions $end
#0
$dumpvars
1!
0"
0#
0$
0%
0&
0'
0(
0)
0*
1+
x,
1-
1.
1/
10
11
12
03
04
05
06
07
08
09
0:
1;
x<
0=
0>
0?
0@
0A
0B
0C
0D
0E
1F
1G
1H
1I
1J
1K
1L
1M
1N
$end
#100000
1)
19
1=
0N
#190000
1'
17
1C
0L
#200000
0)
1&
09
16
1A
0=
1N
0I
#225000
1%
15
1>
0H
#250000
1#
1$
1(
13
14
18
1D
1?
1@
0F
0G
0M
1B
0J
#300000
1)
19
1=
0N
1E
0K
1:
0;
1"
0!
#380000
0'
07
0C
1L
0E
1K
0:
1;
0"
1!
#400000
0)
0&
09
06
0A
0=
1N
1I
0B
1J
#450000
0%
05
0>
1H
#500000
1)
0#
0$
0(
19
03
04
08
0D
0?
0@
1=
0N
1F
1G
1M
#570000
1'
17
1C
0L
#600000
0)
1&
09
16
1A
0=
1N
0I
#675000
1%
15
1>
0H
#700000
1)
19
1=
0N
#750000
1#
1$
1(
13
14
18
1D
1?
1@
0F
0G
0M
1B
0J
1E
0K
1:
0;
1"
0!
#760000
0'
07
0C
1L
0E
1K
0:
1;
0"
1!
#800000
0)
0&
09
06
0A
0=
1N
1I
0B
1J
#900000
1)
0%
19
05
0>
1=
0N
1H
#950000
1'
17
1C
0L
