Lab 1/VHDL/simulation/qsim/nsubburaj_lab1_vhdl.msim.vcd
$comment
	File created using the following command:
		vcd file nsubburaj_lab1_vhdl.msim.vcd -direction
$end
$date
	Wed Oct 20 19:37:11 2021
$end
$version
	ModelSim Version 10.5b
$end
$timescale
	1ps
$end

$scope module nsubburaj_lab1_vhdl_vhd_vec_tst $end
$var wire 1 ! A $end
$var wire 1 " B $end
$var wire 1 # Y $end

$scope module i1 $end
$var wire 1 $ gnd $end
$var wire 1 % vcc $end
$var wire 1 & unknown $end
$var wire 1 ' devoe $end
$var wire 1 ( devclrn $end
$var wire 1 ) devpor $end
$var wire 1 * ww_devoe $end
$var wire 1 + ww_devclrn $end
$var wire 1 , ww_devpor $end
$var wire 1 - ww_A $end
$var wire 1 . ww_B $end
$var wire 1 / ww_Y $end
$var wire 1 0 \~QUARTUS_CREATED_GND~I_combout\ $end
$var wire 1 1 \B~input_o\ $end
$var wire 1 2 \A~input_o\ $end
$var wire 1 3 \Y~0_combout\ $end
$var wire 1 4 \ALT_INV_B~input_o\ $end
$var wire 1 5 \ALT_INV_A~input_o\ $end
$upscope $end
$upscope $end
$enddefinitions $end
#0
$dumpvars
0!
0"
0#
0$
1%
x&
1'
1(
1)
1*
1+
1,
0-
0.
0/
x0
01
02
03
14
15
$end
#25000
1"
1.
11
04
#50000
0"
1!
0.
1-
12
01
14
05
#75000
1"
1.
11
04
13
1/
1#
#100000
0"
0!
0.
0-
02
01
14
15
03
0/
0#
#125000
1"
1.
11
04
#150000
0"
1!
0.
1-
12
01
14
05
#175000
1"
1.
11
04
13
1/
1#
#200000
0"
0!
0.
0-
02
01
14
15
03
0/
0#
#225000
1"
1.
11
04
#250000
0"
1!
0.
1-
12
01
14
05
#275000
1"
1.
11
04
13
1/
1#
#300000
0"
0!
0.
0-
02
01
14
15
03
0/
0#
#325000
1"
1.
11
04
#350000
0"
1!
0.
1-
12
01
14
05
#375000
1"
1.
11
04
13
1/
1#
#400000
0"
0!
0.
0-
02
01
14
15
03
0/
0#
#425000
1"
1.
11
04
#450000
0"
1!
0.
1-
12
01
14
05
#475000
1"
1.
11
04
13
1/
1#
#500000
0"
0!
0.
0-
02
01
14
15
03
0/
0#
#525000
1"
1.
11
04
#550000
0"
1!
0.
1-
12
01
14
05
#575000
1"
1.
11
04
13
1/
1#
#600000
0"
0!
0.
0-
02
01
14
15
03
0/
0#
#625000
1"
1.
11
04
#650000
0"
1!
0.
1-
12
01
14
05
#675000
1"
1.
11
04
13
1/
1#
#700000
0"
0!
0.
0-
02
01
14
15
03
0/
0#
#725000
1"
1.
11
04
#750000
0"
1!
0.
1-
12
01
14
05
#775000
1"
1.
11
04
13
1/
1#
#800000
0"
0!
0.
0-
02
01
14
15
03
0/
0#
#825000
1"
1.
11
04
#850000
0"
1!
0.
1-
12
01
14
05
#875000
1"
1.
11
04
13
1/
1#
#900000
0"
0!
0.
0-
02
01
14
15
03
0/
0#
#925000
1"
1.
11
04
#950000
0"
1!
0.
1-
12
01
14
05
#975000
1"
1.
11
04
13
1/
1#
