Lab 4/Verilog/simulation/qsim/nsubburaj_concurrentconstructs_verilog.msim.vcd
$comment
	File created using the following command:
		vcd file nsubburaj_concurrentconstructs_verilog.msim.vcd -direction
$end
$date
	Fri Oct 08 14:14:28 2021
$end
$version
	ModelSim Version 2020.1
$end
$timescale
	1ps
$end

$scope module nsubburaj_concurrentconstructs_verilog_vlg_vec_tst $end
$var reg 3 ! X [2:0] $end
$var wire 1 " Y [7] $end
$var wire 1 # Y [6] $end
$var wire 1 $ Y [5] $end
$var wire 1 % Y [4] $end
$var wire 1 & Y [3] $end
$var wire 1 ' Y [2] $end
$var wire 1 ( Y [1] $end
$var wire 1 ) Y [0] $end

$scope module i1 $end
$var wire 1 * gnd $end
$var wire 1 + vcc $end
$var wire 1 , unknown $end
$var tri1 1 - devclrn $end
$var tri1 1 . devpor $end
$var tri1 1 / devoe $end
$var wire 1 0 ~QUARTUS_CREATED_GND~I_combout $end
$var wire 1 1 X[0]~input_o $end
$var wire 1 2 X[2]~input_o $end
$var wire 1 3 X[1]~input_o $end
$var wire 1 4 Equal0~0_combout $end
$var wire 1 5 Equal0~1_combout $end
$var wire 1 6 Equal0~2_combout $end
$var wire 1 7 Equal0~3_combout $end
$var wire 1 8 Equal0~4_combout $end
$var wire 1 9 Y~0_combout $end
$var wire 1 : Y~1_combout $end
$var wire 1 ; Y~2_combout $end
$upscope $end
$upscope $end
$enddefinitions $end
#0
$dumpvars
b0 !
1)
0(
0'
0&
0%
0$
0#
0"
0*
1+
x,
1-
1.
1/
00
01
02
03
14
05
06
07
08
09
0:
1;
$end
#500
b1 !
11
15
04
0)
1(
#1000
b11 !
b10 !
01
13
16
05
0(
1'
#1500
b11 !
11
17
06
0'
1&
#2000
b111 !
b101 !
b100 !
01
03
12
18
07
0&
1%
#2500
b101 !
11
19
08
0%
1$
#3000
b111 !
b110 !
01
13
1:
09
0$
1#
#3500
b111 !
11
0;
0:
0#
1"
#4000
b11 !
b1 !
b0 !
01
03
02
1;
14
1)
0"
#4500
b1 !
11
15
04
0)
1(
#5000
b11 !
b10 !
01
13
16
05
0(
1'
#5500
b11 !
11
17
06
0'
1&
#6000
b111 !
b101 !
b100 !
01
03
12
18
07
0&
1%
#6500
b101 !
11
19
08
0%
1$
#7000
b111 !
b110 !
01
13
1:
09
0$
1#
#7500
b111 !
11
0;
0:
0#
1"
#8000
b11 !
b1 !
b0 !
01
03
02
1;
14
1)
0"
#8500
b1 !
11
15
04
0)
1(
#9000
b11 !
b10 !
01
13
16
05
0(
1'
#9500
b11 !
11
17
06
0'
1&
