Lab 4/VDHL/simulation/qsim/nsubburaj_concurrentconstructs_VHDL.msim.vcd
$comment
	File created using the following command:
		vcd file nsubburaj_concurrentconstructs_VHDL.msim.vcd -direction
$end
$date
	Thu Oct 14 12:01:41 2021
$end
$version
	ModelSim Version 2020.1
$end
$timescale
	1ps
$end

$scope module nsubburaj_concurrentconstructs_vhdl_vhd_vec_tst $end
$var wire 1 ! X [2] $end
$var wire 1 " X [1] $end
$var wire 1 # X [0] $end
$var wire 1 $ Y [7] $end
$var wire 1 % Y [6] $end
$var wire 1 & Y [5] $end
$var wire 1 ' Y [4] $end
$var wire 1 ( Y [3] $end
$var wire 1 ) Y [2] $end
$var wire 1 * Y [1] $end
$var wire 1 + Y [0] $end

$scope module i1 $end
$var wire 1 , gnd $end
$var wire 1 - vcc $end
$var wire 1 . unknown $end
$var wire 1 / devoe $end
$var wire 1 0 devclrn $end
$var wire 1 1 devpor $end
$var wire 1 2 ww_devoe $end
$var wire 1 3 ww_devclrn $end
$var wire 1 4 ww_devpor $end
$var wire 1 5 ww_X [2] $end
$var wire 1 6 ww_X [1] $end
$var wire 1 7 ww_X [0] $end
$var wire 1 8 ww_Y [7] $end
$var wire 1 9 ww_Y [6] $end
$var wire 1 : ww_Y [5] $end
$var wire 1 ; ww_Y [4] $end
$var wire 1 < ww_Y [3] $end
$var wire 1 = ww_Y [2] $end
$var wire 1 > ww_Y [1] $end
$var wire 1 ? ww_Y [0] $end
$var wire 1 @ \~QUARTUS_CREATED_GND~I_combout\ $end
$var wire 1 A \X[0]~input_o\ $end
$var wire 1 B \X[2]~input_o\ $end
$var wire 1 C \X[1]~input_o\ $end
$var wire 1 D \Mux7~0_combout\ $end
$var wire 1 E \Mux7~1_combout\ $end
$var wire 1 F \Mux7~2_combout\ $end
$var wire 1 G \Mux7~3_combout\ $end
$var wire 1 H \Mux7~4_combout\ $end
$var wire 1 I \Mux7~5_combout\ $end
$var wire 1 J \Mux7~6_combout\ $end
$var wire 1 K \Mux7~7_combout\ $end
$var wire 1 L \ALT_INV_X[2]~input_o\ $end
$var wire 1 M \ALT_INV_X[0]~input_o\ $end
$var wire 1 N \ALT_INV_X[1]~input_o\ $end
$upscope $end
$upscope $end
$enddefinitions $end
#0
$dumpvars
0,
1-
x.
1/
10
11
12
13
14
x@
0A
0B
0C
1D
0E
0F
0G
0H
0I
0J
0K
1L
1M
1N
0!
0"
0#
0$
0%
0&
0'
0(
0)
0*
1+
05
06
07
08
09
0:
0;
0<
0=
0>
1?
$end
#500
1#
17
1A
0M
0D
1E
1>
0?
0+
1*
#1000
0#
1"
07
16
1C
0A
1M
0N
0E
1F
1=
0>
0*
1)
#1500
1#
17
1A
0M
0F
1G
1<
0=
0)
1(
#2000
0#
0"
1!
07
06
15
1B
0C
0A
1M
1N
0L
0G
1H
1;
0<
0(
1'
#2500
1#
17
1A
0M
0H
1I
1:
0;
0'
1&
#3000
0#
1"
07
16
1C
0A
1M
0N
0I
1J
19
0:
0&
1%
#3500
1#
17
1A
0M
0J
1K
18
09
0%
1$
#4000
0#
0"
0!
07
06
05
0B
0C
0A
1M
1N
1L
1D
0K
08
1?
1+
0$
#4500
1#
17
1A
0M
0D
1E
1>
0?
0+
1*
#5000
0#
1"
07
16
1C
0A
1M
0N
0E
1F
1=
0>
0*
1)
#5500
1#
17
1A
0M
0F
1G
1<
0=
0)
1(
#6000
0#
0"
1!
07
06
15
1B
0C
0A
1M
1N
0L
0G
1H
1;
0<
0(
1'
#6500
1#
17
1A
0M
0H
1I
1:
0;
0'
1&
#7000
0#
1"
07
16
1C
0A
1M
0N
0I
1J
19
0:
0&
1%
#7500
1#
17
1A
0M
0J
1K
18
09
0%
1$
#8000
0#
0"
0!
07
06
05
0B
0C
0A
1M
1N
1L
1D
0K
08
1?
1+
0$
#8500
1#
17
1A
0M
0D
1E
1>
0?
0+
1*
#9000
0#
1"
07
16
1C
0A
1M
0N
0E
1F
1=
0>
0*
1)
#9500
1#
17
1A
0M
0F
1G
1<
0=
0)
1(
#10000
0#
0"
1!
07
06
15
1B
0C
0A
1M
1N
0L
0G
1H
1;
0<
0(
1'
#10500
1#
17
1A
0M
0H
1I
1:
0;
0'
1&
#11000
0#
1"
07
16
1C
0A
1M
0N
0I
1J
19
0:
0&
1%
#11500
1#
17
1A
0M
0J
1K
18
09
0%
1$
#12000
0#
0"
0!
07
06
05
0B
0C
0A
1M
1N
1L
1D
0K
08
1?
1+
0$
#12500
1#
17
1A
0M
0D
1E
1>
0?
0+
1*
#13000
0#
1"
07
16
1C
0A
1M
0N
0E
1F
1=
0>
0*
1)
#13500
1#
17
1A
0M
0F
1G
1<
0=
0)
1(
#14000
0#
0"
1!
07
06
15
1B
0C
0A
1M
1N
0L
0G
1H
1;
0<
0(
1'
#14500
1#
17
1A
0M
0H
1I
1:
0;
0'
1&
